A report generated from a pure R script
…
#  Now run the model, which is going to try 20 different values for each of the tuning hyperparameters and do this for 10 resamples of the data.
set.seed(345)
tune_res <- tune_grid(
  tune_wf,
  resamples = pet_folds,
  grid = 20
)

i Creating pre-processing data to finalize unknown parameter: mtry

tune_res

# Tuning results
# 100-fold cross-validation 
# A tibble: 29 x 4
   splits         id     .metrics          .notes          
   <list>         <chr>  <list>            <list>          
 1 <split [28/1]> Fold01 <tibble [40 x 7]> <tibble [0 x 1]>
 2 <split [28/1]> Fold02 <tibble [40 x 7]> <tibble [0 x 1]>
 3 <split [28/1]> Fold03 <tibble [40 x 7]> <tibble [0 x 1]>
 4 <split [28/1]> Fold04 <tibble [40 x 7]> <tibble [0 x 1]>
 5 <split [28/1]> Fold05 <tibble [40 x 7]> <tibble [0 x 1]>
 6 <split [28/1]> Fold06 <tibble [40 x 7]> <tibble [0 x 1]>
 7 <split [28/1]> Fold07 <tibble [40 x 7]> <tibble [0 x 1]>
 8 <split [28/1]> Fold08 <tibble [40 x 7]> <tibble [0 x 1]>
 9 <split [28/1]> Fold09 <tibble [40 x 7]> <tibble [0 x 1]>
10 <split [28/1]> Fold10 <tibble [40 x 7]> <tibble [0 x 1]>
# ... with 19 more rows
…
